{
  "images" : [
    {
      "idiom" : "iphone",
      "scale" : "1x",
      "filename" : "shelf-header.png"
    },
    {
      "idiom" : "iphone",
      "scale" : "2x",
      "filename" : "shelf-header@2x.png"
    },
    {
      "idiom" : "iphone",
      "scale" : "3x",
      "filename" : "shelf-header@3x.png"
    },
    {
      "idiom" : "ipad",
      "scale" : "1x",
      "filename" : "shelf-header-ipad.png"
    },
    {
      "idiom" : "ipad",
      "scale" : "2x",
      "filename" : "shelf-header-ipad@2x.png"
    }
  ],
  "info" : {
    "version" : 1,
    "author" : "xcode"
  }
}